…
## 第一步

使用 ggplot2 中自带的数据 mpg，查看大型发动机的汽车是否比小型发动机的汽车更耗油，以及发动机的尺寸和燃油效率是否有关系。

```r
> library(tidyverse)
> df <- ggplot2::mpg
> df
# A tibble: 234 x 11
   manufacturer model     displ  year   cyl trans     drv     cty   hwy fl    class
   <chr>        <chr>     <dbl> <int> <int> <chr>     <chr> <int> <int> <chr> <chr>
 1 audi         a4          1.8  1999     4 auto(l5)  f        18    29 p     compa~
 2 audi         a4          1.8  1999     4 manual(m~ f        21    29 p     compa~
 3 audi         a4          2    2008     4 manual(m~ f        20    31 p     compa~
 4 audi         a4          2    2008     4 auto(av)  f        21    30 p     compa~
 5 audi         a4          2.8  1999     6 auto(l5)  f        16    26 p     compa~
 6 audi         a4          2.8  1999     6 manual(m~ f        18    26 p     compa~
 7 audi         a4          3.1  2008     6 auto(av)  f        18    27 p     compa~
 8 audi         a4 quatt~   1.8  1999     4 manual(m~ 4        18    26 p     compa~
 9 audi         a4 quatt~   1.8  1999     4 auto(l5)  4        16    25 p     compa~
10 audi         a4 quatt~   2    2008     4 manual(m~ 4        20    28 p     compa~
# ... with 224 more rows
```
…
