…
- 函数，如 `mean`
- lambda
- 函数或 lambda list

例如，使用函数：

```r
> std <- function(x) {
+   (x - mean(x)) / sd(x)
+ }
> iris %>% group_by(Species) %>%
+   summarise(
+     across(starts_with("Sepal"), std)
+   )
# A tibble: 150 x 3
# Groups:   Species [3]
   Species Sepal.Length Sepal.Width
   <fct>          <dbl>       <dbl>
 1 setosa        0.267       0.190
 2 setosa       -0.301      -1.13  
 3 setosa       -0.868      -0.601
 4 setosa       -1.15       -0.865
 5 setosa       -0.0170      0.454
 6 setosa        1.12        1.25  
 7 setosa       -1.15       -0.0739
 8 setosa       -0.0170     -0.0739
 9 setosa       -1.72       -1.39  
10 setosa       -0.301      -0.865
# ... with 140 more rows
```

使用 lambda:

```r
> iris %>% group_by(Species) %>% summarise(
+     across(starts_with("Sepal"), ~(.x - mean(.x))/sd(.x))
+ )
# A tibble: 150 x 3
# Groups:   Species [3]
   Species Sepal.Length Sepal.Width
   <fct>          <dbl>       <dbl>
 1 setosa        0.267       0.190
 2 setosa       -0.301      -1.13  
 3 setosa       -0.868      -0.601
 4 setosa       -1.15       -0.865
 5 setosa       -0.0170      0.454
 6 setosa        1.12        1.25  
 7 setosa       -1.15       -0.0739
 8 setosa       -0.0170     -0.0739
 9 setosa       -1.72       -1.39  
10 setosa       -0.301      -0.865
# ... with 140 more rows
```
…
