…
### data.frame 转 tibble

`as_tibble()` 将 `data.frame` 转换为 tibble:

```r
> as_tibble(iris)
# A tibble: 150 x 5
   Sepal.Length Sepal.Width Petal.Length Petal.Width Species
          <dbl>       <dbl>        <dbl>       <dbl> <fct>  
 1          5.1         3.5          1.4         0.2 setosa 
 2          4.9         3            1.4         0.2 setosa 
 3          4.7         3.2          1.3         0.2 setosa 
 4          4.6         3.1          1.5         0.2 setosa 
 5          5           3.6          1.4         0.2 setosa 
 6          5.4         3.9          1.7         0.4 setosa 
 7          4.6         3.4          1.4         0.3 setosa 
 8          5           3.4          1.5         0.2 setosa 
 9          4.4         2.9          1.4         0.2 setosa 
10          4.9         3.1          1.5         0.1 setosa 
# ... with 140 more rows
```
…
tibble 和 `data.frame` 的使用主要有两个差异：print 和 subset.

### print

Tibble 的打印方法进行了修改，只显示前 10 行，并尽可能多的显示列。这样对大规模数据比较友好。除了标题，还输出每一列的类型：

```r
tibble(
  a = lubridate::now() + runif(1e3) * 86400,
  b = lubridate::today() + runif(1e3) * 30,
  c = 1:1e3,
  d = runif(1e3),
  e = sample(letters, 1e3, replace = TRUE)
)
#> # A tibble: 1,000 x 5
#>   a                   b              c     d e    
#>   <dttm>              <date>     <int> <dbl> <chr>
#> 1 2020-05-08 23:14:55 2020-05-15     1 0.368 n    
#> 2 2020-05-09 17:20:05 2020-05-20     2 0.612 l    
#> 3 2020-05-09 11:43:44 2020-05-30     3 0.415 p    
#> 4 2020-05-09 01:05:01 2020-05-29     4 0.212 m    
#> 5 2020-05-08 21:29:18 2020-05-26     5 0.733 i    
#> 6 2020-05-09 08:30:15 2020-05-22     6 0.460 n    
#> # … with 994 more rows
```
…
