…
为了方便讨论，我们先定义一些术语：

- **变量（variable）**：指能够测量的数量、性质或属性。
- **值（value）**：指测量时变量所呈现的状态。同一变量在不同测量中，其值可能会发生变化。
- **观测（observation）**：指在相似条件下完成的一组测量（通常是在同一时间、对同一对象完成所有测量）。一个观测会包含多个值，每个值对应不同的变量。观测又称为数据点（data point）。
- **表格数据（tabular data）**：是一组值的集合，每个值都对应一个变量和一次观测。如果表格数据中，每个值都放在独立的 “单元格” 中，每个变量独占一列，每个观测独占一行，这样的数据就是整洁数据（tidy data）。

在这个语境下，**变量**指的是所有企鹅都具有的一项属性，而**观测**指的是单只企鹅的全部属性。

在控制台中输入数据框的名称，R 就会打印出其内容的预览信息。预览内容顶部标注了 “tibble”（ tibble 是 tidyverse 中对数据框的特殊实现，也译作 “轻量级数据框”）。在 tidyverse 体系中，我们使用名为 **tibble** 的特殊数据框。

```R
> penguins
# A tibble: 344 × 8
   species island    bill_length_mm bill_depth_mm flipper_length_mm body_mass_g sex     year
   <fct>   <fct>              <dbl>         <dbl>             <int>       <int> <fct>  <int>
 1 Adelie  Torgersen           39.1          18.7               181        3750 male    2007
 2 Adelie  Torgersen           39.5          17.4               186        3800 female  2007
 3 Adelie  Torgersen           40.3          18                 195        3250 female  2007
 4 Adelie  Torgersen           NA            NA                  NA          NA NA      2007
 5 Adelie  Torgersen           36.7          19.3               193        3450 female  2007
 6 Adelie  Torgersen           39.3          20.6               190        3650 male    2007
 7 Adelie  Torgersen           38.9          17.8               181        3625 female  2007
 8 Adelie  Torgersen           39.2          19.6               195        4675 male    2007
 9 Adelie  Torgersen           34.1          18.1               193        3475 NA      2007
10 Adelie  Torgersen           42            20.2               190        4250 NA      2007
# ℹ 334 more rows
# ℹ Use `print(n = ...)` to see more rows
```
…
<img src="./images/unnamed-chunk-14-1.png" alt="A scatterplot of body mass vs. flipper length of penguins, with a  line of best fit displaying the relationship between these two variables  overlaid. The plot displays a positive, fairly linear, and relatively  strong relationship between these two variables. Species (Adelie,  Chinstrap, and Gentoo) are represented with different colors and  shapes. The relationship between body mass and flipper length is  roughly the same for these three species, and Gentoo penguins are  larger than penguins from the other two species." width="600" />

最终得到一张与我们 “目标”**完美匹配**的图表！

### 1.2.5 练习

1. `penguins` 数据集中有多少行、多少列？

```R
> penguins
# A tibble: 344 × 8
   species island    bill_length_mm bill_depth_mm flipper_length_mm body_mass_g sex   
   <fct>   <fct>              <dbl>         <dbl>             <int>       <int> <fct> 
 1 Adelie  Torgersen           39.1          18.7               181        3750 male  
 2 Adelie  Torgersen           39.5          17.4               186        3800 female
 3 Adelie  Torgersen           40.3          18                 195        3250 female
 4 Adelie  Torgersen           NA            NA                  NA          NA NA    
 5 Adelie  Torgersen           36.7          19.3               193        3450 female
 6 Adelie  Torgersen           39.3          20.6               190        3650 male  
 7 Adelie  Torgersen           38.9          17.8               181        3625 female
 8 Adelie  Torgersen           39.2          19.6               195        4675 male  
 9 Adelie  Torgersen           34.1          18.1               193        3475 NA    
10 Adelie  Torgersen           42            20.2               190        4250 NA    
# ℹ 334 more rows
# ℹ 1 more variable: year <int>
# ℹ Use `print(n = ...)` to see more rows
```
…
