…
## 映射

下面就一个问题就行分析：是否汽车的排量越大，油耗越大？

就该问题，需要 mpg 数据集的三个变量：

- displ, 发动机排量
- hwy, 每加仑英里数，即油耗
- class，汽车类型

```r
> mpg[c('displ', 'hwy', 'class')]
# A tibble: 234 x 3
   displ   hwy class  
   <dbl> <int> <chr>  
 1   1.8    29 compact
 2   1.8    29 compact
 3   2      31 compact
 4   2      30 compact
 5   2.8    26 compact
 6   2.8    26 compact
 7   3.1    27 compact
 8   1.8    26 compact
 9   1.8    25 compact
10   2      28 compact
# ... with 224 more rows
```
…
